…
``` r
rnet_y
```

    Simple feature collection with 32 features and 32 fields
    Geometry type: LINESTRING
    Dimension:     XY
    Bounding box:  xmin: -3.17222 ymin: 55.93662 xmax: -3.14503 ymax: 55.94199
    Geodetic CRS:  WGS 84
    # A tibble: 32 × 33
       all_fastest_bicycle all_fastest_bicycle_ebike all_fastest_bicycle_go_dutch
                     <dbl>                     <dbl>                        <dbl>
     1                   0                         0                            0
     2                   0                         0                            0
     3                   0                         0                            0
     4                   0                         0                            0
     5                   0                         0                            0
     6                   0                        52                            3
     7                   0                        15                            8
     8                   0                       164                            9
     9                   0                       164                            9
    10                   0                       164                            9
    # ℹ 22 more rows
    # ℹ 30 more variables: all_quietest_bicycle <dbl>,
    #   all_quietest_bicycle_ebike <dbl>, all_quietest_bicycle_go_dutch <dbl>,
    #   commute_fastest_bicycle <dbl>, commute_fastest_bicycle_ebike <dbl>,
    #   commute_fastest_bicycle_go_dutch <dbl>, commute_quietest_bicycle <dbl>,
    #   commute_quietest_bicycle_ebike <dbl>,
    #   commute_quietest_bicycle_go_dutch <dbl>, primary_fastest_bicycle <dbl>, …
…
``` r
rnet_y
```

    Simple feature collection with 32 features and 32 fields
    Geometry type: LINESTRING
    Dimension:     XY
    Bounding box:  xmin: -3.17222 ymin: 55.93662 xmax: -3.14503 ymax: 55.94199
    Geodetic CRS:  WGS 84
    # A tibble: 32 × 33
       all_fastest_bicycle all_fastest_bicycle_ebike all_fastest_bicycle_go_dutch
                     <dbl>                     <dbl>                        <dbl>
     1                   0                         0                            0
     2                   0                         0                            0
     3                   0                         0                            0
     4                   0                         0                            0
     5                   0                         0                            0
     6                   0                        52                            3
     7                   0                        15                            8
     8                   0                       164                            9
     9                   0                       164                            9
    10                   0                       164                            9
    # ℹ 22 more rows
    # ℹ 30 more variables: all_quietest_bicycle <dbl>,
    #   all_quietest_bicycle_ebike <dbl>, all_quietest_bicycle_go_dutch <dbl>,
    #   commute_fastest_bicycle <dbl>, commute_fastest_bicycle_ebike <dbl>,
    #   commute_fastest_bicycle_go_dutch <dbl>, commute_quietest_bicycle <dbl>,
    #   commute_quietest_bicycle_ebike <dbl>,
    #   commute_quietest_bicycle_go_dutch <dbl>, primary_fastest_bicycle <dbl>, …
…
